<?xml version="1.0" encoding="UTF-8" standalone="no"?>
<!DOCTYPE svg PUBLIC "-//W3C//DTD SVG 1.1//EN" "http://www.w3.org/Graphics/SVG/1.1/DTD/svg11.dtd">
<svg width="100%" height="100%" viewBox="0 0 512 512" version="1.1" xmlns="http://www.w3.org/2000/svg" xmlns:xlink="http://www.w3.org/1999/xlink" xml:space="preserve" xmlns:serif="http://www.serif.com/" style="fill-rule:evenodd;clip-rule:evenodd;stroke-linejoin:round;stroke-miterlimit:2;">
    <g>
        <g id="resistance-icon-29.svg" transform="matrix(1.92805,0,0,1.92805,255.569,254.503)">
            <g transform="matrix(1,0,0,1,-133,-132)">
                <g transform="matrix(1.02771,0,0,1.02771,-3.17133,-10.0053)">
                    <path d="M132.5,253.467L132.148,253.43C124.752,252.615 116.534,249.192 106.7,243.3C97.1,237.6 78.8,217 71.4,206.5C57.7,186.9 47,158.9 42.6,131C38.9,108 38.1,65.4 41.4,64.6C42,64.4 46.3,63.6 51,62.7C61,60.8 71.7,55.8 78.2,50C83.1,45.8 89.2,34.9 91,27.2C91.9,23.6 92.5,23 94.8,22.9C95.497,22.854 113.464,22.937 132.5,23.039C151.536,22.937 169.503,22.854 170.2,22.9C172.5,23 173.1,23.6 174,27.2C175.8,34.9 181.9,45.8 186.8,50C193.3,55.8 204,60.8 214,62.7C218.7,63.6 223,64.4 223.6,64.6C226.9,65.4 226.1,108 222.4,131C218,158.9 207.3,186.9 193.6,206.5C186.2,217 167.9,237.6 158.3,243.3C148.466,249.192 140.248,252.615 132.852,253.43L132.5,253.467Z" style="fill-rule:nonzero;"/>
                </g>
            </g>
        </g>
        <g id="slash.svg" transform="matrix(-0.458982,1.01915e-16,-1.01915e-16,-0.458982,255.569,256)">
            <g transform="matrix(1,0,0,1,-256,-256)">
                <g>
                    <path d="M270.877,444.542C576.857,496.618 318.44,29.007 23.097,25.68C447.57,-7.506 696.864,640.745 270.878,444.54L270.877,444.542Z" style="fill:white;fill-rule:nonzero;"/>
                </g>
            </g>
        </g>
    </g>
</svg>
