<?xml version="1.0" encoding="UTF-8" standalone="no"?>
<!DOCTYPE svg PUBLIC "-//W3C//DTD SVG 1.1//EN" "http://www.w3.org/Graphics/SVG/1.1/DTD/svg11.dtd">
<svg width="100%" height="100%" viewBox="0 0 512 512" version="1.1" xmlns="http://www.w3.org/2000/svg" xmlns:xlink="http://www.w3.org/1999/xlink" xml:space="preserve" xmlns:serif="http://www.serif.com/" style="fill-rule:evenodd;clip-rule:evenodd;stroke-linejoin:round;stroke-miterlimit:2;">
    <g>
        <g id="resistance-icon-29.svg" transform="matrix(1.92805,0,0,1.92805,255.569,254.503)">
            <g transform="matrix(1,0,0,1,-133,-132)">
                <g transform="matrix(1.02771,0,0,1.02771,-3.17133,-10.0053)">
                    <path d="M132.5,253.467L132.148,253.43C124.752,252.615 116.534,249.192 106.7,243.3C97.1,237.6 78.8,217 71.4,206.5C57.7,186.9 47,158.9 42.6,131C38.9,108 38.1,65.4 41.4,64.6C42,64.4 46.3,63.6 51,62.7C61,60.8 71.7,55.8 78.2,50C83.1,45.8 89.2,34.9 91,27.2C91.9,23.6 92.5,23 94.8,22.9C95.497,22.854 113.464,22.937 132.5,23.039C151.536,22.937 169.503,22.854 170.2,22.9C172.5,23 173.1,23.6 174,27.2C175.8,34.9 181.9,45.8 186.8,50C193.3,55.8 204,60.8 214,62.7C218.7,63.6 223,64.4 223.6,64.6C226.9,65.4 226.1,108 222.4,131C218,158.9 207.3,186.9 193.6,206.5C186.2,217 167.9,237.6 158.3,243.3C148.466,249.192 140.248,252.615 132.852,253.43L132.5,253.467Z" style="fill-rule:nonzero;"/>
                </g>
            </g>
        </g>
        <g id="impact-point.svg" transform="matrix(0.537484,0,0,0.537484,255.569,204.214)">
            <g transform="matrix(1,0,0,1,-256,-256)">
                <g>
                    <path d="M102.469,373.78C95.889,375.445 89.599,377.204 83.655,379.063C62.015,385.829 44.81,393.878 33.655,402.125C22.501,410.372 18.093,417.998 18.093,424.595C18.093,431.19 22.501,438.815 33.655,447.062C44.81,455.309 62.015,463.358 83.655,470.125C126.933,483.658 187.809,492.25 255.03,492.25C322.253,492.25 383.128,483.658 426.406,470.125C448.046,463.358 465.252,455.309 476.406,447.062C487.561,438.816 491.969,431.19 491.969,424.594C491.969,417.998 487.559,410.372 476.405,402.124C465.251,393.878 448.045,385.829 426.405,379.062C420.461,377.204 414.172,375.445 407.593,373.782C426.446,382.922 437.437,393.842 437.437,405.594C437.437,437.66 355.772,463.656 255.03,463.656C154.29,463.656 72.625,437.66 72.625,405.594C72.625,393.844 83.615,382.921 102.469,373.781L102.469,373.78ZM166.405,379.5C161.53,380.673 156.892,381.937 152.593,383.28C139.773,387.29 129.66,392.087 123.437,396.688C117.213,401.288 115.53,404.893 115.53,407.281C115.53,409.671 117.214,413.275 123.437,417.876C129.661,422.476 139.773,427.273 152.594,431.282C178.236,439.302 214.721,444.472 255.031,444.472C295.341,444.472 331.859,439.302 357.501,431.282C370.321,427.274 380.403,422.478 386.626,417.877C392.849,413.277 394.532,409.672 394.532,407.283C394.532,404.896 392.85,401.291 386.627,396.691C380.404,392.091 370.323,387.293 357.502,383.284C353.194,381.938 348.546,380.679 343.658,379.504C352.35,384.291 357.346,389.859 357.346,395.784C357.346,413.771 311.538,428.348 255.033,428.348C198.529,428.348 152.723,413.771 152.723,395.785C152.723,389.862 157.725,384.291 166.409,379.505L166.405,379.5Z" style="fill:white;fill-rule:nonzero;"/>
                </g>
            </g>
        </g>
        <g transform="matrix(0.707107,0.707107,-0.707107,0.707107,253.997,-171.656)">
            <path d="M231.961,193.897L196.119,229.739L282.002,315.62C289.322,322.94 296.192,325.126 302.452,324.922C308.714,324.718 314.698,321.825 319.207,317.18C328.224,307.89 331.617,293.55 317.844,279.777L231.961,193.897Z" style="fill:white;fill-rule:nonzero;"/>
        </g>
    </g>
</svg>
